verilog xil_defaultlib --include "/tools/Xilinx/Vivado/2022.2/data/xilinx_vip/include" --include "../../../../led_soc.gen/sources_1/bd/design_soc/ipshared/ec67/hdl" --include "../../../../led_soc.gen/sources_1/bd/design_soc/ipshared/ee60/hdl" \
"../../../bd/design_soc/ip/design_soc_processing_system7_0_0/sim/design_soc_processing_system7_0_0.v" \
"../../../bd/design_soc/ip/design_soc_auto_pc_0/sim/design_soc_auto_pc_0.v" \

verilog xil_defaultlib "glbl.v"

nosort
