# compile vhdl design source files
vhdl xil_defaultlib  \
"tb_digit_serial_divider_func_synth.vhd" \
"../../../../../digit_serial_divider_mealy.srcs/sim_1/imports/digit_serial_divider_mealy/tb_digit_serial_divider.vhd" \

# Do not sort compile order
nosort
