# compile vhdl design source files
vhdl xil_defaultlib  \
"tb_project_audio_func_synth.vhd" \
"../../../../../project_audio.srcs/sim_1/imports/project_audio/tb_project_audio.vhd" \

# Do not sort compile order
nosort
