10:19:42 **** Incremental Build of configuration Debug for project project_audio_vitis ****
make all 
make --no-print-directory pre-build
a9-linaro-pre-build-step
 
make --no-print-directory main-build
Building file: ../src/helloworld.c
Invoking: ARM v7 gcc compiler
arm-none-eabi-gcc -Wall -O0 -g3 -c -fmessage-length=0 -MT"src/helloworld.o" -mcpu=cortex-a9 -mfpu=vfpv3 -mfloat-abi=hard -I/home/juan/Documentos/JuanK/universidad/profun_2/project_audio/vitis/project_audio_design_wrapper/export/project_audio_design_wrapper/sw/project_audio_design_wrapper/standalone_ps7_cortexa9_0/bspinclude/include -MMD -MP -MF"src/helloworld.d" -MT"src/helloworld.o" -o "src/helloworld.o" "../src/helloworld.c"
../src/helloworld.c: In function 'main':
../src/helloworld.c:81:19: warning: format '%d' expects argument of type 'int', but argument 2 has type 'uint32_t' {aka 'long unsigned int'} [-Wformat=]
   81 |         printf(" %d \n",read);
      |                  ~^     ~~~~
      |                   |     |
      |                   int   uint32_t {aka long unsigned int}
      |                  %ld
Finished building: ../src/helloworld.c
 
Building target: project_audio_vitis.elf
Invoking: ARM v7 gcc linker
arm-none-eabi-gcc -mcpu=cortex-a9 -mfpu=vfpv3 -mfloat-abi=hard -Wl,-build-id=none -specs=Xilinx.spec -Wl,-T -Wl,../src/lscript.ld -L/home/juan/Documentos/JuanK/universidad/profun_2/project_audio/vitis/project_audio_design_wrapper/export/project_audio_design_wrapper/sw/project_audio_design_wrapper/standalone_ps7_cortexa9_0/bsplib/lib -o "project_audio_vitis.elf" ./src/helloworld.o ./src/platform.o   -Wl,--start-group,-lxil,-lgcc,-lc,--end-group
Finished building target: project_audio_vitis.elf
 
Invoking: ARM v7 Print Size
arm-none-eabi-size project_audio_vitis.elf  |tee "project_audio_vitis.elf.size"
   text	   data	    bss	    dec	    hex	filename
  50011	   2548	  22632	  75191	  125b7	project_audio_vitis.elf
Finished building: project_audio_vitis.elf.size
 

10:19:43 Build Finished (took 1s.86ms)

