# compile vhdl design source files
vhdl xil_defaultlib  \
"tb_counter_struct_func_synth.vhd" \
"../../../../../counter_struct.srcs/sim_1/new/tb_counter_struct.vhd" \

# Do not sort compile order
nosort
