Copyright 1986-2022 Xilinx, Inc. All Rights Reserved.
---------------------------------------------------------------------------------------------------------------------------------------------------------------------------------------------------------------------
| Tool Version : Vivado v.2022.2 (lin64) Build 3671981 Fri Oct 14 04:59:54 MDT 2022
| Date         : Wed Mar 22 09:24:53 2023
| Host         : juan-Inspiron-14-3467 running 64-bit Linux Mint 21.1
| Command      : report_bus_skew -warn_on_violation -file project_audio_design_wrapper_bus_skew_routed.rpt -pb project_audio_design_wrapper_bus_skew_routed.pb -rpx project_audio_design_wrapper_bus_skew_routed.rpx
| Design       : project_audio_design_wrapper
| Device       : 7z010-clg400
| Speed File   : -1  PRODUCTION 1.12 2019-11-22
---------------------------------------------------------------------------------------------------------------------------------------------------------------------------------------------------------------------

Bus Skew Report

No bus skew constraints

