
*** Running vivado
    with args -log project_audio_design_wrapper.vdi -applog -m64 -product Vivado -messageDb vivado.pb -mode batch -source project_audio_design_wrapper.tcl -notrace


****** Vivado v2022.2 (64-bit)
  **** SW Build 3671981 on Fri Oct 14 04:59:54 MDT 2022
  **** IP Build 3669848 on Fri Oct 14 08:30:02 MDT 2022
    ** Copyright 1986-2022 Xilinx, Inc. All Rights Reserved.

source project_audio_design_wrapper.tcl -notrace
create_project: Time (s): cpu = 00:00:06 ; elapsed = 00:00:06 . Memory (MB): peak = 1327.176 ; gain = 0.023 ; free physical = 2503 ; free virtual = 19996
INFO: [IP_Flow 19-234] Refreshing IP repositories
INFO: [IP_Flow 19-1700] Loaded user IP repository '/home/juan/Documentos/JuanK/universidad/profun_2/project_audio/ip_repo/project_audio_ip_1_0'.
INFO: [IP_Flow 19-2313] Loaded Vivado IP repository '/tools/Xilinx/Vivado/2022.2/data/ip'.
Command: link_design -top project_audio_design_wrapper -part xc7z010clg400-1
Design is defaulting to srcset: sources_1
Design is defaulting to constrset: constrs_1
INFO: [Device 21-403] Loading part xc7z010clg400-1
INFO: [Project 1-454] Reading design checkpoint '/home/juan/Documentos/JuanK/universidad/profun_2/project_audio/project_audio/project_audio.gen/sources_1/bd/project_audio_design/ip/project_audio_design_processing_system7_0_0/project_audio_design_processing_system7_0_0.dcp' for cell 'project_audio_design_i/processing_system7_0'
INFO: [Project 1-454] Reading design checkpoint '/home/juan/Documentos/JuanK/universidad/profun_2/project_audio/project_audio/project_audio.gen/sources_1/bd/project_audio_design/ip/project_audio_design_project_audio_ip_0_0/project_audio_design_project_audio_ip_0_0.dcp' for cell 'project_audio_design_i/project_audio_ip_0'
INFO: [Project 1-454] Reading design checkpoint '/home/juan/Documentos/JuanK/universidad/profun_2/project_audio/project_audio/project_audio.gen/sources_1/bd/project_audio_design/ip/project_audio_design_rst_ps7_0_100M_0/project_audio_design_rst_ps7_0_100M_0.dcp' for cell 'project_audio_design_i/rst_ps7_0_100M'
INFO: [Project 1-454] Reading design checkpoint '/home/juan/Documentos/JuanK/universidad/profun_2/project_audio/project_audio/project_audio.gen/sources_1/bd/project_audio_design/ip/project_audio_design_auto_pc_0/project_audio_design_auto_pc_0.dcp' for cell 'project_audio_design_i/ps7_0_axi_periph/s00_couplers/auto_pc'
Netlist sorting complete. Time (s): cpu = 00:00:00.04 ; elapsed = 00:00:00.04 . Memory (MB): peak = 1592.238 ; gain = 0.000 ; free physical = 2172 ; free virtual = 19665
INFO: [Netlist 29-17] Analyzing 50 Unisim elements for replacement
INFO: [Netlist 29-28] Unisim Transformation completed in 0 CPU seconds
INFO: [Project 1-479] Netlist was created with Vivado 2022.2
INFO: [Project 1-570] Preparing netlist for logic optimization
Parsing XDC File [/home/juan/Documentos/JuanK/universidad/profun_2/project_audio/project_audio/project_audio.gen/sources_1/bd/project_audio_design/ip/project_audio_design_processing_system7_0_0/project_audio_design_processing_system7_0_0.xdc] for cell 'project_audio_design_i/processing_system7_0/inst'
Finished Parsing XDC File [/home/juan/Documentos/JuanK/universidad/profun_2/project_audio/project_audio/project_audio.gen/sources_1/bd/project_audio_design/ip/project_audio_design_processing_system7_0_0/project_audio_design_processing_system7_0_0.xdc] for cell 'project_audio_design_i/processing_system7_0/inst'
Parsing XDC File [/home/juan/Documentos/JuanK/universidad/profun_2/project_audio/project_audio/project_audio.gen/sources_1/bd/project_audio_design/ip/project_audio_design_rst_ps7_0_100M_0/project_audio_design_rst_ps7_0_100M_0_board.xdc] for cell 'project_audio_design_i/rst_ps7_0_100M/U0'
Finished Parsing XDC File [/home/juan/Documentos/JuanK/universidad/profun_2/project_audio/project_audio/project_audio.gen/sources_1/bd/project_audio_design/ip/project_audio_design_rst_ps7_0_100M_0/project_audio_design_rst_ps7_0_100M_0_board.xdc] for cell 'project_audio_design_i/rst_ps7_0_100M/U0'
Parsing XDC File [/home/juan/Documentos/JuanK/universidad/profun_2/project_audio/project_audio/project_audio.gen/sources_1/bd/project_audio_design/ip/project_audio_design_rst_ps7_0_100M_0/project_audio_design_rst_ps7_0_100M_0.xdc] for cell 'project_audio_design_i/rst_ps7_0_100M/U0'
Finished Parsing XDC File [/home/juan/Documentos/JuanK/universidad/profun_2/project_audio/project_audio/project_audio.gen/sources_1/bd/project_audio_design/ip/project_audio_design_rst_ps7_0_100M_0/project_audio_design_rst_ps7_0_100M_0.xdc] for cell 'project_audio_design_i/rst_ps7_0_100M/U0'
INFO: [Opt 31-138] Pushed 0 inverter(s) to 0 load pin(s).
Netlist sorting complete. Time (s): cpu = 00:00:00 ; elapsed = 00:00:00 . Memory (MB): peak = 1742.703 ; gain = 0.000 ; free physical = 2050 ; free virtual = 19543
INFO: [Project 1-111] Unisim Transformation Summary:
No Unisim elements were transformed.

14 Infos, 0 Warnings, 0 Critical Warnings and 0 Errors encountered.
link_design completed successfully
link_design: Time (s): cpu = 00:00:12 ; elapsed = 00:00:12 . Memory (MB): peak = 1742.703 ; gain = 415.527 ; free physical = 2050 ; free virtual = 19543
Command: opt_design
Attempting to get a license for feature 'Implementation' and/or device 'xc7z010'
INFO: [Common 17-349] Got license for feature 'Implementation' and/or device 'xc7z010'
Running DRC as a precondition to command opt_design

Starting DRC Task
INFO: [DRC 23-27] Running DRC with 4 threads
INFO: [Project 1-461] DRC finished with 0 Errors
INFO: [Project 1-462] Please refer to the DRC report (report_drc) for more information.

Time (s): cpu = 00:00:01 ; elapsed = 00:00:00.87 . Memory (MB): peak = 1786.453 ; gain = 43.750 ; free physical = 2036 ; free virtual = 19530

Starting Cache Timing Information Task
INFO: [Timing 38-35] Done setting XDC timing constraints.
Ending Cache Timing Information Task | Checksum: 1b7436c27

Time (s): cpu = 00:00:07 ; elapsed = 00:00:07 . Memory (MB): peak = 2231.312 ; gain = 444.859 ; free physical = 1655 ; free virtual = 19162

Starting Logic Optimization Task

Phase 1 Retarget
INFO: [Opt 31-138] Pushed 0 inverter(s) to 0 load pin(s).
INFO: [Opt 31-49] Retargeted 0 cell(s).
Phase 1 Retarget | Checksum: 1d3911f79

Time (s): cpu = 00:00:00.24 ; elapsed = 00:00:00.14 . Memory (MB): peak = 2511.203 ; gain = 0.000 ; free physical = 1412 ; free virtual = 18920
INFO: [Opt 31-389] Phase Retarget created 4 cells and removed 29 cells

Phase 2 Constant propagation
INFO: [Opt 31-138] Pushed 0 inverter(s) to 0 load pin(s).
Phase 2 Constant propagation | Checksum: 1d7aa891f

Time (s): cpu = 00:00:00.26 ; elapsed = 00:00:00.16 . Memory (MB): peak = 2511.203 ; gain = 0.000 ; free physical = 1412 ; free virtual = 18920
INFO: [Opt 31-389] Phase Constant propagation created 0 cells and removed 8 cells

Phase 3 Sweep
Phase 3 Sweep | Checksum: 20efcfc39

Time (s): cpu = 00:00:00.42 ; elapsed = 00:00:00.33 . Memory (MB): peak = 2511.203 ; gain = 0.000 ; free physical = 1412 ; free virtual = 18920
INFO: [Opt 31-389] Phase Sweep created 0 cells and removed 297 cells

Phase 4 BUFG optimization
Phase 4 BUFG optimization | Checksum: 20efcfc39

Time (s): cpu = 00:00:00.48 ; elapsed = 00:00:00.36 . Memory (MB): peak = 2543.219 ; gain = 32.016 ; free physical = 1412 ; free virtual = 18919
INFO: [Opt 31-662] Phase BUFG optimization created 0 cells of which 0 are BUFGs and removed 0 cells.

Phase 5 Shift Register Optimization
INFO: [Opt 31-1064] SRL Remap converted 0 SRLs to 0 registers and converted 0 registers of register chains to 0 SRLs
Phase 5 Shift Register Optimization | Checksum: 20efcfc39

Time (s): cpu = 00:00:00.48 ; elapsed = 00:00:00.37 . Memory (MB): peak = 2543.219 ; gain = 32.016 ; free physical = 1412 ; free virtual = 18919
INFO: [Opt 31-389] Phase Shift Register Optimization created 0 cells and removed 0 cells

Phase 6 Post Processing Netlist
Phase 6 Post Processing Netlist | Checksum: 1c530c1bd

Time (s): cpu = 00:00:00.5 ; elapsed = 00:00:00.38 . Memory (MB): peak = 2543.219 ; gain = 32.016 ; free physical = 1412 ; free virtual = 18919
INFO: [Opt 31-389] Phase Post Processing Netlist created 0 cells and removed 0 cells
Opt_design Change Summary
=========================


-------------------------------------------------------------------------------------------------------------------------
|  Phase                        |  #Cells created  |  #Cells Removed  |  #Constrained objects preventing optimizations  |
-------------------------------------------------------------------------------------------------------------------------
|  Retarget                     |               4  |              29  |                                              0  |
|  Constant propagation         |               0  |               8  |                                              0  |
|  Sweep                        |               0  |             297  |                                              0  |
|  BUFG optimization            |               0  |               0  |                                              0  |
|  Shift Register Optimization  |               0  |               0  |                                              0  |
|  Post Processing Netlist      |               0  |               0  |                                              0  |
-------------------------------------------------------------------------------------------------------------------------



Starting Connectivity Check Task

Time (s): cpu = 00:00:00.02 ; elapsed = 00:00:00 . Memory (MB): peak = 2543.219 ; gain = 0.000 ; free physical = 1412 ; free virtual = 18919
Ending Logic Optimization Task | Checksum: cd9f9a3b

Time (s): cpu = 00:00:00.6 ; elapsed = 00:00:00.45 . Memory (MB): peak = 2543.219 ; gain = 32.016 ; free physical = 1412 ; free virtual = 18919

Starting Power Optimization Task
INFO: [Pwropt 34-132] Skipping clock gating for clocks with a period < 2.00 ns.
INFO: [Timing 38-35] Done setting XDC timing constraints.
Running Vector-less Activity Propagation...

Finished Running Vector-less Activity Propagation
INFO: [Pwropt 34-9] Applying IDT optimizations ...
INFO: [Pwropt 34-10] Applying ODC optimizations ...


Starting PowerOpt Patch Enables Task
INFO: [Pwropt 34-162] WRITE_MODE attribute of 0 BRAM(s) out of a total of 24 has been updated to save power. Run report_power_opt to get a complete listing of the BRAMs updated.
INFO: [Pwropt 34-201] Structural ODC has moved 0 WE to EN ports
Number of BRAM Ports augmented: 0 newly gated: 0 Total Ports: 48
Ending PowerOpt Patch Enables Task | Checksum: cd9f9a3b

Time (s): cpu = 00:00:00.09 ; elapsed = 00:00:00.1 . Memory (MB): peak = 2670.086 ; gain = 0.000 ; free physical = 1387 ; free virtual = 18901
Ending Power Optimization Task | Checksum: cd9f9a3b

Time (s): cpu = 00:00:02 ; elapsed = 00:00:02 . Memory (MB): peak = 2670.086 ; gain = 126.867 ; free physical = 1395 ; free virtual = 18908

Starting Final Cleanup Task
Ending Final Cleanup Task | Checksum: cd9f9a3b

Time (s): cpu = 00:00:00 ; elapsed = 00:00:00 . Memory (MB): peak = 2670.086 ; gain = 0.000 ; free physical = 1395 ; free virtual = 18908

Starting Netlist Obfuscation Task
Netlist sorting complete. Time (s): cpu = 00:00:00 ; elapsed = 00:00:00 . Memory (MB): peak = 2670.086 ; gain = 0.000 ; free physical = 1395 ; free virtual = 18908
Ending Netlist Obfuscation Task | Checksum: cd9f9a3b

Time (s): cpu = 00:00:00 ; elapsed = 00:00:00 . Memory (MB): peak = 2670.086 ; gain = 0.000 ; free physical = 1395 ; free virtual = 18908
INFO: [Common 17-83] Releasing license: Implementation
36 Infos, 0 Warnings, 0 Critical Warnings and 0 Errors encountered.
opt_design completed successfully
opt_design: Time (s): cpu = 00:00:14 ; elapsed = 00:00:13 . Memory (MB): peak = 2670.086 ; gain = 927.383 ; free physical = 1395 ; free virtual = 18908
INFO: [Timing 38-480] Writing timing data to binary archive.
Writing XDEF routing.
Writing XDEF routing logical nets.
Writing XDEF routing special nets.
Write XDEF Complete: Time (s): cpu = 00:00:00.33 ; elapsed = 00:00:00.09 . Memory (MB): peak = 2673.098 ; gain = 3.012 ; free physical = 1382 ; free virtual = 18897
INFO: [Common 17-1381] The checkpoint '/home/juan/Documentos/JuanK/universidad/profun_2/project_audio/project_audio/project_audio.runs/impl_1/project_audio_design_wrapper_opt.dcp' has been generated.
INFO: [runtcl-4] Executing : report_drc -file project_audio_design_wrapper_drc_opted.rpt -pb project_audio_design_wrapper_drc_opted.pb -rpx project_audio_design_wrapper_drc_opted.rpx
Command: report_drc -file project_audio_design_wrapper_drc_opted.rpt -pb project_audio_design_wrapper_drc_opted.pb -rpx project_audio_design_wrapper_drc_opted.rpx
INFO: [IP_Flow 19-1839] IP Catalog is up to date.
INFO: [DRC 23-27] Running DRC with 4 threads
INFO: [Vivado_Tcl 2-168] The results of DRC are in file /home/juan/Documentos/JuanK/universidad/profun_2/project_audio/project_audio/project_audio.runs/impl_1/project_audio_design_wrapper_drc_opted.rpt.
report_drc completed successfully
Command: place_design
Attempting to get a license for feature 'Implementation' and/or device 'xc7z010'
INFO: [Common 17-349] Got license for feature 'Implementation' and/or device 'xc7z010'
INFO: [DRC 23-27] Running DRC with 4 threads
INFO: [Vivado_Tcl 4-198] DRC finished with 0 Errors
INFO: [Vivado_Tcl 4-199] Please refer to the DRC report (report_drc) for more information.
Running DRC as a precondition to command place_design
INFO: [DRC 23-27] Running DRC with 4 threads
INFO: [Vivado_Tcl 4-198] DRC finished with 0 Errors
INFO: [Vivado_Tcl 4-199] Please refer to the DRC report (report_drc) for more information.

Starting Placer Task
INFO: [Place 30-611] Multithreading enabled for place_design using a maximum of 4 CPUs

Phase 1 Placer Initialization

Phase 1.1 Placer Initialization Netlist Sorting
Netlist sorting complete. Time (s): cpu = 00:00:00 ; elapsed = 00:00:00 . Memory (MB): peak = 2713.117 ; gain = 0.000 ; free physical = 1360 ; free virtual = 18876
Phase 1.1 Placer Initialization Netlist Sorting | Checksum: 99a129cc

Time (s): cpu = 00:00:00.03 ; elapsed = 00:00:00.05 . Memory (MB): peak = 2713.117 ; gain = 0.000 ; free physical = 1360 ; free virtual = 18876
Netlist sorting complete. Time (s): cpu = 00:00:00 ; elapsed = 00:00:00 . Memory (MB): peak = 2713.117 ; gain = 0.000 ; free physical = 1360 ; free virtual = 18876

Phase 1.2 IO Placement/ Clock Placement/ Build Placer Device
INFO: [Timing 38-35] Done setting XDC timing constraints.
Phase 1.2 IO Placement/ Clock Placement/ Build Placer Device | Checksum: b459904c

Time (s): cpu = 00:00:00.8 ; elapsed = 00:00:00.55 . Memory (MB): peak = 2713.117 ; gain = 0.000 ; free physical = 1349 ; free virtual = 18866

Phase 1.3 Build Placer Netlist Model
Phase 1.3 Build Placer Netlist Model | Checksum: 22293c0c6

Time (s): cpu = 00:00:02 ; elapsed = 00:00:00.97 . Memory (MB): peak = 2713.117 ; gain = 0.000 ; free physical = 1358 ; free virtual = 18875

Phase 1.4 Constrain Clocks/Macros
Phase 1.4 Constrain Clocks/Macros | Checksum: 22293c0c6

Time (s): cpu = 00:00:02 ; elapsed = 00:00:00.98 . Memory (MB): peak = 2713.117 ; gain = 0.000 ; free physical = 1358 ; free virtual = 18875
Phase 1 Placer Initialization | Checksum: 22293c0c6

Time (s): cpu = 00:00:02 ; elapsed = 00:00:00.98 . Memory (MB): peak = 2713.117 ; gain = 0.000 ; free physical = 1358 ; free virtual = 18876

Phase 2 Global Placement

Phase 2.1 Floorplanning
Phase 2.1 Floorplanning | Checksum: 176b1ffa9

Time (s): cpu = 00:00:02 ; elapsed = 00:00:01 . Memory (MB): peak = 2713.117 ; gain = 0.000 ; free physical = 1357 ; free virtual = 18876

Phase 2.2 Update Timing before SLR Path Opt
Phase 2.2 Update Timing before SLR Path Opt | Checksum: 1b0e13449

Time (s): cpu = 00:00:02 ; elapsed = 00:00:01 . Memory (MB): peak = 2713.117 ; gain = 0.000 ; free physical = 1357 ; free virtual = 18876

Phase 2.3 Post-Processing in Floorplanning
Phase 2.3 Post-Processing in Floorplanning | Checksum: 1b0e13449

Time (s): cpu = 00:00:02 ; elapsed = 00:00:01 . Memory (MB): peak = 2713.117 ; gain = 0.000 ; free physical = 1357 ; free virtual = 18876

Phase 2.4 Global Placement Core

Phase 2.4.1 UpdateTiming Before Physical Synthesis
Phase 2.4.1 UpdateTiming Before Physical Synthesis | Checksum: 1a1b5b8f6

Time (s): cpu = 00:00:05 ; elapsed = 00:00:02 . Memory (MB): peak = 2713.117 ; gain = 0.000 ; free physical = 1352 ; free virtual = 18871

Phase 2.4.2 Physical Synthesis In Placer
INFO: [Physopt 32-1035] Found 0 LUTNM shape to break, 25 LUT instances to create LUTNM shape
INFO: [Physopt 32-1044] Break lutnm for timing: one critical 0, two critical 0, total 0, new lutff created 0
INFO: [Physopt 32-1138] End 1 Pass. Optimized 10 nets or LUTs. Breaked 0 LUT, combined 10 existing LUTs and moved 0 existing LUT
INFO: [Physopt 32-65] No nets found for high-fanout optimization.
INFO: [Physopt 32-232] Optimized 0 net. Created 0 new instance.
INFO: [Physopt 32-775] End 1 Pass. Optimized 0 net or cell. Created 0 new cell, deleted 0 existing cell and moved 0 existing cell
INFO: [Physopt 32-670] No setup violation found.  DSP Register Optimization was not performed.
INFO: [Physopt 32-670] No setup violation found.  Shift Register to Pipeline Optimization was not performed.
INFO: [Physopt 32-670] No setup violation found.  Shift Register Optimization was not performed.
INFO: [Physopt 32-670] No setup violation found.  BRAM Register Optimization was not performed.
INFO: [Physopt 32-670] No setup violation found.  URAM Register Optimization was not performed.
INFO: [Physopt 32-949] No candidate nets found for dynamic/static region interface net replication
INFO: [Physopt 32-775] End 1 Pass. Optimized 0 net or cell. Created 0 new cell, deleted 0 existing cell and moved 0 existing cell
Netlist sorting complete. Time (s): cpu = 00:00:00 ; elapsed = 00:00:00 . Memory (MB): peak = 2713.117 ; gain = 0.000 ; free physical = 1349 ; free virtual = 18870

Summary of Physical Synthesis Optimizations
============================================


-----------------------------------------------------------------------------------------------------------------------------------------------------------
|  Optimization                                     |  Added Cells  |  Removed Cells  |  Optimized Cells/Nets  |  Dont Touch  |  Iterations  |  Elapsed   |
-----------------------------------------------------------------------------------------------------------------------------------------------------------
|  LUT Combining                                    |            0  |             10  |                    10  |           0  |           1  |  00:00:00  |
|  Retime                                           |            0  |              0  |                     0  |           0  |           1  |  00:00:00  |
|  Very High Fanout                                 |            0  |              0  |                     0  |           0  |           1  |  00:00:00  |
|  DSP Register                                     |            0  |              0  |                     0  |           0  |           0  |  00:00:00  |
|  Shift Register to Pipeline                       |            0  |              0  |                     0  |           0  |           0  |  00:00:00  |
|  Shift Register                                   |            0  |              0  |                     0  |           0  |           0  |  00:00:00  |
|  BRAM Register                                    |            0  |              0  |                     0  |           0  |           0  |  00:00:00  |
|  URAM Register                                    |            0  |              0  |                     0  |           0  |           0  |  00:00:00  |
|  Dynamic/Static Region Interface Net Replication  |            0  |              0  |                     0  |           0  |           1  |  00:00:00  |
|  Total                                            |            0  |             10  |                    10  |           0  |           4  |  00:00:00  |
-----------------------------------------------------------------------------------------------------------------------------------------------------------


Phase 2.4.2 Physical Synthesis In Placer | Checksum: e43198d0

Time (s): cpu = 00:00:06 ; elapsed = 00:00:03 . Memory (MB): peak = 2713.117 ; gain = 0.000 ; free physical = 1349 ; free virtual = 18870
Phase 2.4 Global Placement Core | Checksum: 180eef545

Time (s): cpu = 00:00:06 ; elapsed = 00:00:03 . Memory (MB): peak = 2713.117 ; gain = 0.000 ; free physical = 1349 ; free virtual = 18870
Phase 2 Global Placement | Checksum: 180eef545

Time (s): cpu = 00:00:06 ; elapsed = 00:00:03 . Memory (MB): peak = 2713.117 ; gain = 0.000 ; free physical = 1349 ; free virtual = 18870

Phase 3 Detail Placement

Phase 3.1 Commit Multi Column Macros
Phase 3.1 Commit Multi Column Macros | Checksum: 1518cbbf3

Time (s): cpu = 00:00:06 ; elapsed = 00:00:03 . Memory (MB): peak = 2713.117 ; gain = 0.000 ; free physical = 1348 ; free virtual = 18870

Phase 3.2 Commit Most Macros & LUTRAMs
Phase 3.2 Commit Most Macros & LUTRAMs | Checksum: 156dc5250

Time (s): cpu = 00:00:07 ; elapsed = 00:00:03 . Memory (MB): peak = 2713.117 ; gain = 0.000 ; free physical = 1348 ; free virtual = 18870

Phase 3.3 Area Swap Optimization
Phase 3.3 Area Swap Optimization | Checksum: 9ddb64f6

Time (s): cpu = 00:00:07 ; elapsed = 00:00:03 . Memory (MB): peak = 2713.117 ; gain = 0.000 ; free physical = 1348 ; free virtual = 18870

Phase 3.4 Pipeline Register Optimization
Phase 3.4 Pipeline Register Optimization | Checksum: f516be19

Time (s): cpu = 00:00:07 ; elapsed = 00:00:03 . Memory (MB): peak = 2713.117 ; gain = 0.000 ; free physical = 1348 ; free virtual = 18870

Phase 3.5 Small Shape Detail Placement
Phase 3.5 Small Shape Detail Placement | Checksum: 1460681e0

Time (s): cpu = 00:00:08 ; elapsed = 00:00:04 . Memory (MB): peak = 2713.117 ; gain = 0.000 ; free physical = 1348 ; free virtual = 18870

Phase 3.6 Re-assign LUT pins
Phase 3.6 Re-assign LUT pins | Checksum: 106e5c36a

Time (s): cpu = 00:00:08 ; elapsed = 00:00:04 . Memory (MB): peak = 2713.117 ; gain = 0.000 ; free physical = 1348 ; free virtual = 18870

Phase 3.7 Pipeline Register Optimization
Phase 3.7 Pipeline Register Optimization | Checksum: 15c286cbd

Time (s): cpu = 00:00:08 ; elapsed = 00:00:04 . Memory (MB): peak = 2713.117 ; gain = 0.000 ; free physical = 1348 ; free virtual = 18870
Phase 3 Detail Placement | Checksum: 15c286cbd

Time (s): cpu = 00:00:08 ; elapsed = 00:00:04 . Memory (MB): peak = 2713.117 ; gain = 0.000 ; free physical = 1348 ; free virtual = 18870

Phase 4 Post Placement Optimization and Clean-Up

Phase 4.1 Post Commit Optimization
INFO: [Timing 38-35] Done setting XDC timing constraints.

Phase 4.1.1 Post Placement Optimization
Post Placement Optimization Initialization | Checksum: 1e3ad29c8

Phase 4.1.1.1 BUFG Insertion

Starting Physical Synthesis Task

Phase 1 Physical Synthesis Initialization
INFO: [Physopt 32-721] Multithreading enabled for phys_opt_design using a maximum of 4 CPUs
INFO: [Physopt 32-619] Estimated Timing Summary | WNS=2.731 | TNS=0.000 |
Phase 1 Physical Synthesis Initialization | Checksum: 1d27cacc3

Time (s): cpu = 00:00:00.27 ; elapsed = 00:00:00.12 . Memory (MB): peak = 2713.117 ; gain = 0.000 ; free physical = 1346 ; free virtual = 18868
INFO: [Place 46-56] BUFG insertion identified 0 candidate nets. Inserted BUFG: 0, Replicated BUFG Driver: 0, Skipped due to Placement/Routing Conflicts: 0, Skipped due to Timing Degradation: 0, Skipped due to Illegal Netlist: 0.
Ending Physical Synthesis Task | Checksum: 145ff647a

Time (s): cpu = 00:00:00.29 ; elapsed = 00:00:00.14 . Memory (MB): peak = 2713.117 ; gain = 0.000 ; free physical = 1346 ; free virtual = 18868
Phase 4.1.1.1 BUFG Insertion | Checksum: 1e3ad29c8

Time (s): cpu = 00:00:09 ; elapsed = 00:00:05 . Memory (MB): peak = 2713.117 ; gain = 0.000 ; free physical = 1346 ; free virtual = 18868

Phase 4.1.1.2 Post Placement Timing Optimization
INFO: [Place 30-746] Post Placement Timing Summary WNS=2.731. For the most accurate timing information please run report_timing.
Phase 4.1.1.2 Post Placement Timing Optimization | Checksum: 1d750ec0a

Time (s): cpu = 00:00:09 ; elapsed = 00:00:05 . Memory (MB): peak = 2713.117 ; gain = 0.000 ; free physical = 1346 ; free virtual = 18868

Time (s): cpu = 00:00:09 ; elapsed = 00:00:05 . Memory (MB): peak = 2713.117 ; gain = 0.000 ; free physical = 1346 ; free virtual = 18868
Phase 4.1 Post Commit Optimization | Checksum: 1d750ec0a

Time (s): cpu = 00:00:09 ; elapsed = 00:00:05 . Memory (MB): peak = 2713.117 ; gain = 0.000 ; free physical = 1346 ; free virtual = 18868

Phase 4.2 Post Placement Cleanup
Phase 4.2 Post Placement Cleanup | Checksum: 1d750ec0a

Time (s): cpu = 00:00:09 ; elapsed = 00:00:05 . Memory (MB): peak = 2713.117 ; gain = 0.000 ; free physical = 1346 ; free virtual = 18868

Phase 4.3 Placer Reporting

Phase 4.3.1 Print Estimated Congestion
INFO: [Place 30-612] Post-Placement Estimated Congestion 
 ____________________________________________________
|           | Global Congestion | Short Congestion  |
| Direction | Region Size       | Region Size       |
|___________|___________________|___________________|
|      North|                1x1|                1x1|
|___________|___________________|___________________|
|      South|                1x1|                1x1|
|___________|___________________|___________________|
|       East|                1x1|                1x1|
|___________|___________________|___________________|
|       West|                1x1|                1x1|
|___________|___________________|___________________|

Phase 4.3.1 Print Estimated Congestion | Checksum: 1d750ec0a

Time (s): cpu = 00:00:09 ; elapsed = 00:00:05 . Memory (MB): peak = 2713.117 ; gain = 0.000 ; free physical = 1346 ; free virtual = 18868
Phase 4.3 Placer Reporting | Checksum: 1d750ec0a

Time (s): cpu = 00:00:09 ; elapsed = 00:00:05 . Memory (MB): peak = 2713.117 ; gain = 0.000 ; free physical = 1346 ; free virtual = 18868

Phase 4.4 Final Placement Cleanup
Netlist sorting complete. Time (s): cpu = 00:00:00 ; elapsed = 00:00:00.01 . Memory (MB): peak = 2713.117 ; gain = 0.000 ; free physical = 1346 ; free virtual = 18868

Time (s): cpu = 00:00:09 ; elapsed = 00:00:05 . Memory (MB): peak = 2713.117 ; gain = 0.000 ; free physical = 1346 ; free virtual = 18868
Phase 4 Post Placement Optimization and Clean-Up | Checksum: 1fb8ff64f

Time (s): cpu = 00:00:09 ; elapsed = 00:00:05 . Memory (MB): peak = 2713.117 ; gain = 0.000 ; free physical = 1346 ; free virtual = 18868
Ending Placer Task | Checksum: 1363ffe50

Time (s): cpu = 00:00:09 ; elapsed = 00:00:05 . Memory (MB): peak = 2713.117 ; gain = 0.000 ; free physical = 1346 ; free virtual = 18868
INFO: [Common 17-83] Releasing license: Implementation
71 Infos, 0 Warnings, 0 Critical Warnings and 0 Errors encountered.
place_design completed successfully
place_design: Time (s): cpu = 00:00:12 ; elapsed = 00:00:06 . Memory (MB): peak = 2713.117 ; gain = 0.000 ; free physical = 1348 ; free virtual = 18870
INFO: [Timing 38-480] Writing timing data to binary archive.
Writing XDEF routing.
Writing XDEF routing logical nets.
Writing XDEF routing special nets.
Write XDEF Complete: Time (s): cpu = 00:00:00.85 ; elapsed = 00:00:00.31 . Memory (MB): peak = 2713.117 ; gain = 0.000 ; free physical = 1341 ; free virtual = 18867
INFO: [Common 17-1381] The checkpoint '/home/juan/Documentos/JuanK/universidad/profun_2/project_audio/project_audio/project_audio.runs/impl_1/project_audio_design_wrapper_placed.dcp' has been generated.
INFO: [runtcl-4] Executing : report_io -file project_audio_design_wrapper_io_placed.rpt
report_io: Time (s): cpu = 00:00:00.13 ; elapsed = 00:00:00.2 . Memory (MB): peak = 2713.117 ; gain = 0.000 ; free physical = 1332 ; free virtual = 18855
INFO: [runtcl-4] Executing : report_utilization -file project_audio_design_wrapper_utilization_placed.rpt -pb project_audio_design_wrapper_utilization_placed.pb
INFO: [runtcl-4] Executing : report_control_sets -verbose -file project_audio_design_wrapper_control_sets_placed.rpt
report_control_sets: Time (s): cpu = 00:00:00.05 ; elapsed = 00:00:00.11 . Memory (MB): peak = 2713.117 ; gain = 0.000 ; free physical = 1341 ; free virtual = 18864
Command: phys_opt_design
Attempting to get a license for feature 'Implementation' and/or device 'xc7z010'
INFO: [Common 17-349] Got license for feature 'Implementation' and/or device 'xc7z010'

Starting Initial Update Timing Task

Time (s): cpu = 00:00:00.75 ; elapsed = 00:00:00.37 . Memory (MB): peak = 2713.117 ; gain = 0.000 ; free physical = 1316 ; free virtual = 18840
INFO: [Vivado_Tcl 4-383] Design worst setup slack (WNS) is greater than or equal to 0.000 ns. Skipping all physical synthesis optimizations.
INFO: [Vivado_Tcl 4-232] No setup violation found. The netlist was not modified.
INFO: [Common 17-83] Releasing license: Implementation
80 Infos, 0 Warnings, 0 Critical Warnings and 0 Errors encountered.
phys_opt_design completed successfully
INFO: [Timing 38-480] Writing timing data to binary archive.
Writing XDEF routing.
Writing XDEF routing logical nets.
Writing XDEF routing special nets.
Write XDEF Complete: Time (s): cpu = 00:00:00.89 ; elapsed = 00:00:00.31 . Memory (MB): peak = 2713.117 ; gain = 0.000 ; free physical = 1300 ; free virtual = 18828
INFO: [Common 17-1381] The checkpoint '/home/juan/Documentos/JuanK/universidad/profun_2/project_audio/project_audio/project_audio.runs/impl_1/project_audio_design_wrapper_physopt.dcp' has been generated.
Command: route_design
Attempting to get a license for feature 'Implementation' and/or device 'xc7z010'
INFO: [Common 17-349] Got license for feature 'Implementation' and/or device 'xc7z010'
Running DRC as a precondition to command route_design
INFO: [DRC 23-27] Running DRC with 4 threads
INFO: [Vivado_Tcl 4-198] DRC finished with 0 Errors
INFO: [Vivado_Tcl 4-199] Please refer to the DRC report (report_drc) for more information.


Starting Routing Task
INFO: [Route 35-254] Multithreading enabled for route_design using a maximum of 4 CPUs

Phase 1 Build RT Design
Checksum: PlaceDB: 452eed74 ConstDB: 0 ShapeSum: f11110dc RouteDB: 0
Post Restoration Checksum: NetGraph: 6493a5ac NumContArr: ad784d37 Constraints: 0 Timing: 0
Phase 1 Build RT Design | Checksum: 1120bf2e3

Time (s): cpu = 00:00:13 ; elapsed = 00:00:11 . Memory (MB): peak = 2713.117 ; gain = 0.000 ; free physical = 1246 ; free virtual = 18767

Phase 2 Router Initialization

Phase 2.1 Fix Topology Constraints
Phase 2.1 Fix Topology Constraints | Checksum: 1120bf2e3

Time (s): cpu = 00:00:13 ; elapsed = 00:00:11 . Memory (MB): peak = 2713.117 ; gain = 0.000 ; free physical = 1230 ; free virtual = 18751

Phase 2.2 Pre Route Cleanup
Phase 2.2 Pre Route Cleanup | Checksum: 1120bf2e3

Time (s): cpu = 00:00:13 ; elapsed = 00:00:11 . Memory (MB): peak = 2713.117 ; gain = 0.000 ; free physical = 1230 ; free virtual = 18752
 Number of Nodes with overlaps = 0

Phase 2.3 Update Timing
Phase 2.3 Update Timing | Checksum: c983c6ec

Time (s): cpu = 00:00:14 ; elapsed = 00:00:12 . Memory (MB): peak = 2713.117 ; gain = 0.000 ; free physical = 1222 ; free virtual = 18743
INFO: [Route 35-416] Intermediate Timing Summary | WNS=2.898  | TNS=0.000  | WHS=-0.193 | THS=-72.170|


Router Utilization Summary
  Global Vertical Routing Utilization    = 0 %
  Global Horizontal Routing Utilization  = 0 %
  Routable Net Status*
  *Does not include unroutable nets such as driverless and loadless.
  Run report_route_status for detailed report.
  Number of Failed Nets               = 1875
    (Failed Nets is the sum of unrouted and partially routed nets)
  Number of Unrouted Nets             = 1875
  Number of Partially Routed Nets     = 0
  Number of Node Overlaps             = 0

Phase 2 Router Initialization | Checksum: 1314d02d3

Time (s): cpu = 00:00:15 ; elapsed = 00:00:12 . Memory (MB): peak = 2713.117 ; gain = 0.000 ; free physical = 1220 ; free virtual = 18742

Phase 3 Initial Routing

Phase 3.1 Global Routing
Phase 3.1 Global Routing | Checksum: 1314d02d3

Time (s): cpu = 00:00:15 ; elapsed = 00:00:12 . Memory (MB): peak = 2713.117 ; gain = 0.000 ; free physical = 1220 ; free virtual = 18742
Phase 3 Initial Routing | Checksum: 1958beeda

Time (s): cpu = 00:00:20 ; elapsed = 00:00:13 . Memory (MB): peak = 2713.117 ; gain = 0.000 ; free physical = 1220 ; free virtual = 18742

Phase 4 Rip-up And Reroute

Phase 4.1 Global Iteration 0
 Number of Nodes with overlaps = 63
 Number of Nodes with overlaps = 1
 Number of Nodes with overlaps = 0
INFO: [Route 35-416] Intermediate Timing Summary | WNS=2.835  | TNS=0.000  | WHS=N/A    | THS=N/A    |

Phase 4.1 Global Iteration 0 | Checksum: 13ec2cfd5

Time (s): cpu = 00:00:21 ; elapsed = 00:00:14 . Memory (MB): peak = 2713.117 ; gain = 0.000 ; free physical = 1220 ; free virtual = 18742

Phase 4.2 Global Iteration 1
 Number of Nodes with overlaps = 0
INFO: [Route 35-416] Intermediate Timing Summary | WNS=2.835  | TNS=0.000  | WHS=N/A    | THS=N/A    |

Phase 4.2 Global Iteration 1 | Checksum: 1c06c273d

Time (s): cpu = 00:00:21 ; elapsed = 00:00:14 . Memory (MB): peak = 2713.117 ; gain = 0.000 ; free physical = 1220 ; free virtual = 18742
Phase 4 Rip-up And Reroute | Checksum: 1c06c273d

Time (s): cpu = 00:00:21 ; elapsed = 00:00:14 . Memory (MB): peak = 2713.117 ; gain = 0.000 ; free physical = 1220 ; free virtual = 18742

Phase 5 Delay and Skew Optimization

Phase 5.1 Delay CleanUp
Phase 5.1 Delay CleanUp | Checksum: 1c06c273d

Time (s): cpu = 00:00:21 ; elapsed = 00:00:14 . Memory (MB): peak = 2713.117 ; gain = 0.000 ; free physical = 1220 ; free virtual = 18742

Phase 5.2 Clock Skew Optimization
Phase 5.2 Clock Skew Optimization | Checksum: 1c06c273d

Time (s): cpu = 00:00:21 ; elapsed = 00:00:14 . Memory (MB): peak = 2713.117 ; gain = 0.000 ; free physical = 1220 ; free virtual = 18742
Phase 5 Delay and Skew Optimization | Checksum: 1c06c273d

Time (s): cpu = 00:00:21 ; elapsed = 00:00:14 . Memory (MB): peak = 2713.117 ; gain = 0.000 ; free physical = 1220 ; free virtual = 18742

Phase 6 Post Hold Fix

Phase 6.1 Hold Fix Iter

Phase 6.1.1 Update Timing
Phase 6.1.1 Update Timing | Checksum: 204067cd2

Time (s): cpu = 00:00:22 ; elapsed = 00:00:14 . Memory (MB): peak = 2713.117 ; gain = 0.000 ; free physical = 1220 ; free virtual = 18742
INFO: [Route 35-416] Intermediate Timing Summary | WNS=2.835  | TNS=0.000  | WHS=0.011  | THS=0.000  |

Phase 6.1 Hold Fix Iter | Checksum: 1ff940328

Time (s): cpu = 00:00:22 ; elapsed = 00:00:14 . Memory (MB): peak = 2713.117 ; gain = 0.000 ; free physical = 1220 ; free virtual = 18742
Phase 6 Post Hold Fix | Checksum: 1ff940328

Time (s): cpu = 00:00:22 ; elapsed = 00:00:14 . Memory (MB): peak = 2713.117 ; gain = 0.000 ; free physical = 1220 ; free virtual = 18742

Phase 7 Route finalize

Router Utilization Summary
  Global Vertical Routing Utilization    = 1.27604 %
  Global Horizontal Routing Utilization  = 1.37707 %
  Routable Net Status*
  *Does not include unroutable nets such as driverless and loadless.
  Run report_route_status for detailed report.
  Number of Failed Nets               = 0
    (Failed Nets is the sum of unrouted and partially routed nets)
  Number of Unrouted Nets             = 0
  Number of Partially Routed Nets     = 0
  Number of Node Overlaps             = 0

Phase 7 Route finalize | Checksum: 19650a163

Time (s): cpu = 00:00:22 ; elapsed = 00:00:14 . Memory (MB): peak = 2713.117 ; gain = 0.000 ; free physical = 1220 ; free virtual = 18742

Phase 8 Verifying routed nets

 Verification completed successfully
Phase 8 Verifying routed nets | Checksum: 19650a163

Time (s): cpu = 00:00:22 ; elapsed = 00:00:14 . Memory (MB): peak = 2713.117 ; gain = 0.000 ; free physical = 1220 ; free virtual = 18742

Phase 9 Depositing Routes
Phase 9 Depositing Routes | Checksum: 193447f5a

Time (s): cpu = 00:00:22 ; elapsed = 00:00:14 . Memory (MB): peak = 2713.117 ; gain = 0.000 ; free physical = 1219 ; free virtual = 18741

Phase 10 Post Router Timing
INFO: [Route 35-57] Estimated Timing Summary | WNS=2.835  | TNS=0.000  | WHS=0.011  | THS=0.000  |

INFO: [Route 35-327] The final timing numbers are based on the router estimated timing analysis. For a complete and accurate timing signoff, please run report_timing_summary.
Phase 10 Post Router Timing | Checksum: 193447f5a

Time (s): cpu = 00:00:22 ; elapsed = 00:00:15 . Memory (MB): peak = 2713.117 ; gain = 0.000 ; free physical = 1219 ; free virtual = 18741
INFO: [Route 35-16] Router Completed Successfully

Time (s): cpu = 00:00:22 ; elapsed = 00:00:15 . Memory (MB): peak = 2713.117 ; gain = 0.000 ; free physical = 1233 ; free virtual = 18755

Routing Is Done.
INFO: [Common 17-83] Releasing license: Implementation
95 Infos, 0 Warnings, 0 Critical Warnings and 0 Errors encountered.
route_design completed successfully
route_design: Time (s): cpu = 00:00:25 ; elapsed = 00:00:15 . Memory (MB): peak = 2713.117 ; gain = 0.000 ; free physical = 1233 ; free virtual = 18755
INFO: [Common 17-600] The following parameters have non-default value.
general.maxThreads
INFO: [Timing 38-480] Writing timing data to binary archive.
Writing XDEF routing.
Writing XDEF routing logical nets.
Writing XDEF routing special nets.
Write XDEF Complete: Time (s): cpu = 00:00:00.91 ; elapsed = 00:00:00.35 . Memory (MB): peak = 2713.117 ; gain = 0.000 ; free physical = 1230 ; free virtual = 18756
INFO: [Common 17-1381] The checkpoint '/home/juan/Documentos/JuanK/universidad/profun_2/project_audio/project_audio/project_audio.runs/impl_1/project_audio_design_wrapper_routed.dcp' has been generated.
INFO: [runtcl-4] Executing : report_drc -file project_audio_design_wrapper_drc_routed.rpt -pb project_audio_design_wrapper_drc_routed.pb -rpx project_audio_design_wrapper_drc_routed.rpx
Command: report_drc -file project_audio_design_wrapper_drc_routed.rpt -pb project_audio_design_wrapper_drc_routed.pb -rpx project_audio_design_wrapper_drc_routed.rpx
INFO: [IP_Flow 19-1839] IP Catalog is up to date.
INFO: [DRC 23-27] Running DRC with 4 threads
INFO: [Vivado_Tcl 2-168] The results of DRC are in file /home/juan/Documentos/JuanK/universidad/profun_2/project_audio/project_audio/project_audio.runs/impl_1/project_audio_design_wrapper_drc_routed.rpt.
report_drc completed successfully
INFO: [runtcl-4] Executing : report_methodology -file project_audio_design_wrapper_methodology_drc_routed.rpt -pb project_audio_design_wrapper_methodology_drc_routed.pb -rpx project_audio_design_wrapper_methodology_drc_routed.rpx
Command: report_methodology -file project_audio_design_wrapper_methodology_drc_routed.rpt -pb project_audio_design_wrapper_methodology_drc_routed.pb -rpx project_audio_design_wrapper_methodology_drc_routed.rpx
INFO: [Timing 38-35] Done setting XDC timing constraints.
INFO: [DRC 23-133] Running Methodology with 4 threads
INFO: [Vivado_Tcl 2-1520] The results of Report Methodology are in file /home/juan/Documentos/JuanK/universidad/profun_2/project_audio/project_audio/project_audio.runs/impl_1/project_audio_design_wrapper_methodology_drc_routed.rpt.
report_methodology completed successfully
INFO: [runtcl-4] Executing : report_power -file project_audio_design_wrapper_power_routed.rpt -pb project_audio_design_wrapper_power_summary_routed.pb -rpx project_audio_design_wrapper_power_routed.rpx
Command: report_power -file project_audio_design_wrapper_power_routed.rpt -pb project_audio_design_wrapper_power_summary_routed.pb -rpx project_audio_design_wrapper_power_routed.rpx
INFO: [Timing 38-35] Done setting XDC timing constraints.
Running Vector-less Activity Propagation...

Finished Running Vector-less Activity Propagation
108 Infos, 0 Warnings, 0 Critical Warnings and 0 Errors encountered.
report_power completed successfully
INFO: [runtcl-4] Executing : report_route_status -file project_audio_design_wrapper_route_status.rpt -pb project_audio_design_wrapper_route_status.pb
INFO: [runtcl-4] Executing : report_timing_summary -max_paths 10 -report_unconstrained -file project_audio_design_wrapper_timing_summary_routed.rpt -pb project_audio_design_wrapper_timing_summary_routed.pb -rpx project_audio_design_wrapper_timing_summary_routed.rpx -warn_on_violation 
INFO: [Timing 38-91] UpdateTimingParams: Speed grade: -1, Delay Type: min_max.
INFO: [Timing 38-191] Multithreading enabled for timing update using a maximum of 4 CPUs
INFO: [runtcl-4] Executing : report_incremental_reuse -file project_audio_design_wrapper_incremental_reuse_routed.rpt
INFO: [Vivado_Tcl 4-1062] Incremental flow is disabled. No incremental reuse Info to report.
INFO: [runtcl-4] Executing : report_clock_utilization -file project_audio_design_wrapper_clock_utilization_routed.rpt
INFO: [runtcl-4] Executing : report_bus_skew -warn_on_violation -file project_audio_design_wrapper_bus_skew_routed.rpt -pb project_audio_design_wrapper_bus_skew_routed.pb -rpx project_audio_design_wrapper_bus_skew_routed.rpx
INFO: [Timing 38-91] UpdateTimingParams: Speed grade: -1, Delay Type: min_max.
INFO: [Timing 38-191] Multithreading enabled for timing update using a maximum of 4 CPUs
Command: write_bitstream -force project_audio_design_wrapper.bit
Attempting to get a license for feature 'Implementation' and/or device 'xc7z010'
INFO: [Common 17-349] Got license for feature 'Implementation' and/or device 'xc7z010'
Running DRC as a precondition to command write_bitstream
INFO: [IP_Flow 19-1839] IP Catalog is up to date.
INFO: [DRC 23-27] Running DRC with 4 threads
INFO: [Vivado 12-3199] DRC finished with 0 Errors
INFO: [Vivado 12-3200] Please refer to the DRC report (report_drc) for more information.
INFO: [Designutils 20-2272] Running write_bitstream with 4 threads.
Loading data files...
Loading site data...
Loading route data...
Processing options...
Creating bitmap...
Creating bitstream...
Writing bitstream ./project_audio_design_wrapper.bit...
INFO: [Vivado 12-1842] Bitgen Completed Successfully.
INFO: [Project 1-1876] WebTalk data collection is mandatory when using a ULT device. To see the specific WebTalk data collected for your design, open the usage_statistics_webtalk.html or usage_statistics_webtalk.xml file in the implementation directory.
INFO: [Common 17-83] Releasing license: Implementation
12 Infos, 0 Warnings, 0 Critical Warnings and 0 Errors encountered.
write_bitstream completed successfully
write_bitstream: Time (s): cpu = 00:00:16 ; elapsed = 00:00:13 . Memory (MB): peak = 3035.992 ; gain = 299.219 ; free physical = 1180 ; free virtual = 18713
INFO: [Common 17-206] Exiting Vivado at Wed Mar 22 09:25:07 2023...
